//---- Server stopped 4/20/2008 4:53:16 PM
//---- Server stopped 4/20/2008 4:56:03 PM
//---- Server stopped 4/20/2008 5:09:50 PM
//---- Server stopped 4/20/2008 5:22:29 PM
//---- Server stopped 4/20/2008 5:40:11 PM
//---- Server stopped 4/20/2008 5:41:42 PM
//---- Server stopped 4/20/2008 5:44:15 PM
//---- Server stopped 4/20/2008 6:25:24 PM
//---- Server stopped 4/20/2008 6:35:56 PM
//---- Server stopped 4/20/2008 7:08:16 PM
//---- Server stopped 4/20/2008 7:11:38 PM
//---- Server stopped 4/20/2008 7:58:58 PM
//---- Server stopped 4/20/2008 8:06:34 PM
//---- Server stopped 4/20/2008 8:25:55 PM
//---- Server stopped 4/20/2008 8:34:11 PM
//---- Server stopped 4/20/2008 9:56:01 PM
//---- Server stopped 4/20/2008 10:31:23 PM
//---- Server stopped 4/20/2008 10:39:20 PM
//---- Server stopped 4/20/2008 11:10:27 PM
//---- Server stopped 4/20/2008 11:17:04 PM
//---- Server stopped 4/20/2008 11:25:23 PM
//---- Server stopped 4/20/2008 11:29:50 PM
//---- Server stopped 4/20/2008 11:39:35 PM
//---- Server stopped 4/20/2008 11:45:04 PM
//---- Server stopped 4/20/2008 11:52:27 PM
//---- Server stopped 4/20/2008 11:58:12 PM
//---- Server stopped 4/21/2008 12:01:08 AM
//---- Server stopped 4/21/2008 12:08:06 AM
//---- Server stopped 4/21/2008 12:12:46 AM
//---- Server stopped 4/21/2008 12:18:42 AM
//---- Server stopped 4/21/2008 12:24:36 AM
//---- Server stopped 4/21/2008 12:33:21 AM
//---- Server stopped 4/21/2008 12:42:58 AM
//---- Server stopped 4/21/2008 1:29:12 AM
//---- Server stopped 4/21/2008 1:50:21 AM
//---- Server stopped 4/21/2008 2:15:08 AM
//---- Server stopped 4/21/2008 11:57:11 AM
//---- Server stopped 4/21/2008 1:12:46 PM
//---- Server stopped 4/21/2008 2:23:56 PM
//---- Server stopped 4/21/2008 2:41:34 PM
//---- Server stopped 4/21/2008 2:45:55 PM
//---- Server stopped 4/21/2008 2:49:07 PM
//---- Server stopped 4/21/2008 2:56:49 PM
//---- Server stopped 4/21/2008 2:57:21 PM
//---- Server stopped 4/21/2008 3:12:08 PM
//---- Server stopped 4/21/2008 3:15:27 PM
//---- Server stopped 4/21/2008 3:42:50 PM
//---- Server stopped 4/21/2008 3:52:03 PM
//---- Server stopped 4/21/2008 3:52:07 PM
//---- Server stopped 4/21/2008 4:06:24 PM
//---- Server stopped 4/21/2008 4:11:20 PM
//---- Server stopped 4/21/2008 4:15:26 PM
//---- Server stopped 4/21/2008 4:29:50 PM
//---- Server stopped 4/21/2008 4:56:01 PM
//---- Server stopped 4/21/2008 4:59:32 PM
//---- Server stopped 4/21/2008 5:05:58 PM
//---- Server stopped 4/21/2008 5:13:55 PM
//---- Server stopped 4/21/2008 5:17:03 PM
//---- Server stopped 4/21/2008 5:36:18 PM
//---- Server stopped 4/21/2008 5:47:06 PM
//---- Server stopped 4/21/2008 5:53:21 PM
//---- Server stopped 4/21/2008 6:02:59 PM
//---- Server stopped 4/21/2008 6:11:23 PM
//---- Server stopped 4/21/2008 6:39:59 PM
//---- Server stopped 4/21/2008 6:44:06 PM
//---- Server stopped 4/21/2008 6:50:04 PM
//---- Server stopped 4/21/2008 6:56:16 PM
